bfe.vcd
$date
  Thu Jan 15 16:16:24 2026
$end
$version
  GHDL v0
$end
$timescale
  1 fs
$end
$scope module standard $end
$upscope $end
$scope module textio $end
$upscope $end
$scope module std_logic_1164 $end
$upscope $end
$scope module numeric_std $end
$upscope $end
$scope module bfe_tb $end
$var reg 16 ! s_dst[15:0] $end
$var reg 16 " s_src[15:0] $end
$var reg 4 # s_size[3:0] $end
$var reg 4 $ s_start[3:0] $end
$var reg 1 % s_variant $end
$var reg 16 & s_expected[15:0] $end
$scope module uut $end
$var reg 16 ' dst[15:0] $end
$var reg 16 ( src[15:0] $end
$var reg 4 ) size[3:0] $end
$var reg 4 * start[3:0] $end
$var reg 1 + variant $end
$var reg 16 , s_shifted_src[15:0] $end
$var reg 16 - s_mask[15:0] $end
$var reg 16 . s_msfb_mask[15:0] $end
$var reg 1 / s_msb_field $end
$var reg 1 0 s_fill_bit $end
$var reg 1 1 s_shift_fill $end
$scope module shifter $end
$var reg 16 2 data_in[15:0] $end
$var reg 16 3 data_out[15:0] $end
$var reg 4 4 shift[3:0] $end
$var reg 1 5 missing $end
$comment s_internal_data is not handled $end
$scope module for_i(0) $end
$scope module slice $end
$var reg 16 6 data_in[15:0] $end
$var reg 16 7 data_out[15:0] $end
$var reg 1 8 sel $end
$var reg 1 9 missing $end
$var reg 16 : s_out[15:0] $end
$upscope $end
$upscope $end
$scope module for_i(1) $end
$scope module slice $end
$var reg 16 ; data_in[15:0] $end
$var reg 16 < data_out[15:0] $end
$var reg 1 = sel $end
$var reg 1 > missing $end
$var reg 16 ? s_out[15:0] $end
$upscope $end
$upscope $end
$scope module for_i(2) $end
$scope module slice $end
$var reg 16 @ data_in[15:0] $end
$var reg 16 A data_out[15:0] $end
$var reg 1 B sel $end
$var reg 1 C missing $end
$var reg 16 D s_out[15:0] $end
$upscope $end
$upscope $end
$scope module for_i(3) $end
$scope module slice $end
$var reg 16 E data_in[15:0] $end
$var reg 16 F data_out[15:0] $end
$var reg 1 G sel $end
$var reg 1 H missing $end
$var reg 16 I s_out[15:0] $end
$upscope $end
$upscope $end
$upscope $end
$scope module gen_masks(0) $end
$upscope $end
$scope module gen_masks(1) $end
$upscope $end
$scope module gen_masks(2) $end
$upscope $end
$scope module gen_masks(3) $end
$upscope $end
$scope module gen_masks(4) $end
$upscope $end
$scope module gen_masks(5) $end
$upscope $end
$scope module gen_masks(6) $end
$upscope $end
$scope module gen_masks(7) $end
$upscope $end
$scope module gen_masks(8) $end
$upscope $end
$scope module gen_masks(9) $end
$upscope $end
$scope module gen_masks(10) $end
$upscope $end
$scope module gen_masks(11) $end
$upscope $end
$scope module gen_masks(12) $end
$upscope $end
$scope module gen_masks(13) $end
$upscope $end
$scope module gen_masks(14) $end
$upscope $end
$scope module gen_masks(15) $end
$upscope $end
$scope module gen_out(0) $end
$upscope $end
$scope module gen_out(1) $end
$upscope $end
$scope module gen_out(2) $end
$upscope $end
$scope module gen_out(3) $end
$upscope $end
$scope module gen_out(4) $end
$upscope $end
$scope module gen_out(5) $end
$upscope $end
$scope module gen_out(6) $end
$upscope $end
$scope module gen_out(7) $end
$upscope $end
$scope module gen_out(8) $end
$upscope $end
$scope module gen_out(9) $end
$upscope $end
$scope module gen_out(10) $end
$upscope $end
$scope module gen_out(11) $end
$upscope $end
$scope module gen_out(12) $end
$upscope $end
$scope module gen_out(13) $end
$upscope $end
$scope module gen_out(14) $end
$upscope $end
$scope module gen_out(15) $end
$upscope $end
$upscope $end
$upscope $end
$enddefinitions $end
#0
b0000000000UUUUUU !
b0110100101100101 "
b0101 #
b0011 $
0%
b0000000000101100 &
b0000000000UUUUUU '
b0110100101100101 (
b0101 )
b0011 *
0+
bUUUUUUUUUUUUUUUU ,
b0000000000111111 -
b0000000000100000 .
U/
00
01
b0110100101100101 2
bUUUUUUUUUUUUUUUU 3
b0011 4
05
b0110100101100101 6
bUUUUUUUUUUUUUUUU 7
18
09
b0011010010110010 :
bUUUUUUUUUUUUUUUU ;
bUUUUUUUUUUUUUUUU <
1=
0>
b00UUUUUUUUUUUUUU ?
bUUUUUUUUUUUUUUUU @
bUUUUUUUUUUUUUUUU A
0B
0C
bUUUUUUUUUUUUUUUU D
bUUUUUUUUUUUUUUUU E
bUUUUUUUUUUUUUUUU F
0G
0H
bUUUUUUUUUUUUUUUU I
#10000
b0011010010110010 7
b0011010010110010 ;
b00UUUUUUUUUUUUUU <
b0000110100101100 ?
b00UUUUUUUUUUUUUU @
bUUUUUUUUUUUUUUUU A
b00UUUUUUUUUUUUUU D
bUUUUUUUUUUUUUUUU F
#20000
b0000110100101100 <
b0000110100101100 @
b00UUUUUUUUUUUUUU A
b0000110100101100 D
b00UUUUUUUUUUUUUU E
b00UUUUUUUUUUUUUU I
#30000
b00UUUUUUUUUUUUUU ,
b00UUUUUUUUUUUUUU 3
b0000110100101100 A
b0000110100101100 E
b00UUUUUUUUUUUUUU F
b0000110100101100 I
#40000
b0000000000101100 !
b0000000000101100 '
b0000110100101100 ,
1/
b0000110100101100 3
b0000110100101100 F
#499000
#500000
b1111111111101100 !
1%
b1111111111101100 &
b1111111111101100 '
1+
10
#999000
#1000000
b0000000000001100 !
b0100 #
b1101 $
0%
b0000000000000011 &
b0000000000001100 '
b0100 )
b1101 *
0+
b0000000000011111 -
b0000000000010000 .
0/
00
b1101 4
0=
b0011010010110010 ?
1B
b0000000011010010 D
1G
b0000000000001101 I
#1010000
b0000000000001101 !
b0000000000001101 '
b0000000000001101 ,
b0000000000001101 3
b0011010010110010 <
b0011010010110010 @
b0000000011010010 A
b0000001101001011 D
b0000000011010010 E
b0000000000001101 F
b0000000000000000 I
#1020000
b0000000000000000 !
b0000000000000000 '
b0000000000000000 ,
b0000000000000000 3
b0000001101001011 A
b0000001101001011 E
b0000000000000000 F
b0000000000000011 I
#1030000
b0000000000000011 !
b0000000000000011 '
b0000000000000011 ,
b0000000000000011 3
b0000000000000011 F
#1499000
#1500000
1%
1+
#1999000
#2000000
b1111111111111111 "
b0101 #
b0011 $
0%
b0000000000111111 &
b1111111111111111 (
b0101 )
b0011 *
0+
b0000000000111111 -
b0000000000100000 .
11
b1111111111111111 2
b0011 4
15
b1111111111111111 6
19
b1111111111111111 :
1=
1>
b0000110100101100 ?
0B
1C
b0011010010110010 D
0G
1H
b0000001101001011 I
#2010000
b0000000000001011 !
b0000000000001011 '
b0000001101001011 ,
b0000001101001011 3
b1111111111111111 7
b1111111111111111 ;
b0000110100101100 <
b1111111111111111 ?
b0000110100101100 @
b0011010010110010 A
b0000110100101100 D
b0011010010110010 E
b0000001101001011 F
b0011010010110010 I
#2020000
b0000000000110010 !
b0000000000110010 '
b0011010010110010 ,
1/
b0011010010110010 3
b1111111111111111 <
b1111111111111111 @
b0000110100101100 A
b1111111111111111 D
b0000110100101100 E
b0011010010110010 F
b0000110100101100 I
#2030000
b0000000000101100 !
b0000000000101100 '
b0000110100101100 ,
b0000110100101100 3
b1111111111111111 A
b1111111111111111 E
b0000110100101100 F
b1111111111111111 I
#2040000
b0000000000111111 !
b0000000000111111 '
b1111111111111111 ,
b1111111111111111 3
b1111111111111111 F
#2499000
#2500000
b1111111111111111 !
1%
b1111111111111111 &
b1111111111111111 '
1+
10
#2999000
#3000000
b0000000000011111 !
b0100 #
b1101 $
0%
b0000000000011111 &
b0000000000011111 '
b0100 )
b1101 *
0+
b0000000000011111 -
b0000000000010000 .
00
b1101 4
0=
1B
1G
#3499000
#3500000
b1111111111111111 !
1%
b1111111111111111 &
b1111111111111111 '
1+
10
#3999000
#4000000
b0000000000011111 !
b1000000000000000 "
0%
b0000000000011100 &
b0000000000011111 '
b1000000000000000 (
0+
00
b1000000000000000 2
b1000000000000000 6
b1100000000000000 :
#4010000
b1100000000000000 7
b1100000000000000 ;
b1100000000000000 ?
#4020000
b1100000000000000 <
b1100000000000000 @
b1111110000000000 D
#4030000
b1111110000000000 A
b1111110000000000 E
b1111111111111100 I
#4040000
b0000000000011100 !
b0000000000011100 '
b1111111111111100 ,
b1111111111111100 3
b1111111111111100 F
#4499000
#4500000
b1111111111111100 !
1%
b1111111111111100 &
b1111111111111100 '
1+
10
#4999000
#5000000
b0000000000000000 !
b0000000000000001 "
b0000 #
b0000 $
0%
b0000000000000001 &
b0000000000000000 '
b0000000000000001 (
b0000 )
b0000 *
0+
b0000000000000001 -
b0000000000000001 .
0/
00
01
b0000000000000001 2
b0000 4
05
b0000000000000001 6
08
09
b0000000000000001 :
0>
0B
0C
b1100000000000000 D
0G
0H
b1111110000000000 I
#5010000
b1111110000000000 ,
b1111110000000000 3
b0000000000000001 7
b0000000000000001 ;
b0000000000000001 ?
b1100000000000000 A
b1100000000000000 E
b1111110000000000 F
b1100000000000000 I
#5020000
b1100000000000000 ,
b1100000000000000 3
b0000000000000001 <
b0000000000000001 @
b0000000000000001 D
b1100000000000000 F
#5030000
b0000000000000001 A
b0000000000000001 E
b0000000000000001 I
#5040000
b0000000000000001 !
b0000000000000001 '
b0000000000000001 ,
1/
b0000000000000001 3
b0000000000000001 F
#5499000
#5500000
b1111111111111111 !
1%
b1111111111111111 &
b1111111111111111 '
1+
10
#5999000
#6000000
b0000000000000001 !
b1000000000000000 "
b0001 #
b1111 $
0%
b0000000000000011 &
b0000000000000001 '
b1000000000000000 (
b0001 )
b1111 *
0+
b0000000000000011 -
b0000000000000010 .
0/
00
11
b1000000000000000 2
b1111 4
15
b1000000000000000 6
18
19
b1100000000000000 :
1=
1>
b0000000000000000 ?
1B
1C
b0000000000000000 D
1G
1H
b0000000000000000 I
#6010000
b0000000000000000 !
b0000000000000000 '
b0000000000000000 ,
b0000000000000000 3
b1100000000000000 7
b1100000000000000 ;
b0000000000000000 <
b1111000000000000 ?
b0000000000000000 @
b0000000000000000 A
b0000000000000000 E
b0000000000000000 F
#6020000
b1111000000000000 <
b1111000000000000 @
b1111111100000000 D
#6030000
b1111111100000000 A
b1111111100000000 E
b1111111111111111 I
#6040000
b0000000000000011 !
b0000000000000011 '
b1111111111111111 ,
1/
b1111111111111111 3
b1111111111111111 F
#6499000
#6500000
b1111111111111111 !
1%
b1111111111111111 &
b1111111111111111 '
1+
10
#6999000
#7000000
b0000000000000001 "
b1111 #
b0000 $
0%
b0000000000000001 &
b0000000000000001 (
b1111 )
b0000 *
0+
b1111111111111111 -
b1000000000000000 .
00
01
b0000000000000001 2
b0000 4
05
b0000000000000001 6
08
09
b0000000000000001 :
0=
0>
b1100000000000000 ?
0B
0C
b1111000000000000 D
0G
0H
b1111111100000000 I
#7010000
b1111111100000000 !
b1111111100000000 '
b1111111100000000 ,
b1111111100000000 3
b0000000000000001 7
b0000000000000001 ;
b1100000000000000 <
b0000000000000001 ?
b1100000000000000 @
b1111000000000000 A
b1100000000000000 D
b1111000000000000 E
b1111111100000000 F
b1111000000000000 I
#7020000
b1111000000000000 !
b1111000000000000 '
b1111000000000000 ,
b1111000000000000 3
b0000000000000001 <
b0000000000000001 @
b1100000000000000 A
b0000000000000001 D
b1100000000000000 E
b1111000000000000 F
b1100000000000000 I
#7030000
b1100000000000000 !
b1100000000000000 '
b1100000000000000 ,
b1100000000000000 3
b0000000000000001 A
b0000000000000001 E
b1100000000000000 F
b0000000000000001 I
#7040000
b0000000000000001 !
b0000000000000001 '
b0000000000000001 ,
0/
b0000000000000001 3
b0000000000000001 F
#7499000
#7500000
1%
1+
